<svg id="Composant_6_1" data-name="Composant 6 – 1" xmlns="http://www.w3.org/2000/svg" width="24" height="20" viewBox="0 0 24 20">
  <g id="Polygone_1" data-name="Polygone 1" transform="translate(24 20) rotate(180)" fill="none">
    <path d="M12,0,24,20H0Z" stroke="none"/>
    <path d="M 12 5.83095645904541 L 5.298574447631836 17 L 18.70142555236816 17 L 12 5.83095645904541 M 12 0 L 24 20 L 0 20 L 12 0 Z" stroke="none"/>
  </g>
</svg>
